An R Workbook for Topic Modeling with LDA
…
# convert to tibble (4)
tweets <- dplyr::as_tibble(tweets)

# create unique id for each tweet (5)
tweets <- dplyr::mutate(tweets, id = rownames(tweets))

# rename id to tweetid (6)
names(tweets) <- c("date","tweet", "retweets", "favs", 
                   "followers", "follows", "tweetid")

# display data in tibble format
tweets

## # A tibble: 12,803 x 7
##    date             tweet               retweets  favs followers follows tweetid
##    <chr>            <chr>                  <int> <int>     <int>   <int> <chr>  
##  1 01/02/2022 06:25 "This #BlackHistor~        0     0      6898    4482 1      
##  2 01/02/2022 06:24 "Before you dismis~        1     0        57     150 2      
##  3 01/02/2022 06:23 "Market Budget Mov~        0     0       223       7 3      
##  4 01/02/2022 06:22 "\"\"when engaging~        0     0       901    1380 4      
##  5 01/02/2022 06:18 "On the Hill: Bipa~        0     1      7661    3009 5      
##  6 01/02/2022 06:18 "In the @AGACGFM F~        0     0      1781    4870 6      
##  7 01/02/2022 06:17 "Glad to support o~        0     0       152     637 7      
##  8 01/02/2022 06:16 "Three ways to imp~        0     0       898    2489 8      
##  9 01/02/2022 06:15 "The path to true ~        1     0       182     293 9      
## 10 01/02/2022 06:13 "In honor all Asia~        1     0        40      16 10     
## # ... with 12,793 more rows
…
  # return texts
  texts
}

# clean data by running function
tweets$tweet<- textprocess(texts = tweets$tweet)

# display data
tweets

## # A tibble: 12,803 x 7
##    date             tweet               retweets  favs followers follows tweetid
##    <chr>            <chr>                  <int> <int>     <int>   <int> <chr>  
##  1 01/02/2022 06:25 "this blackhistory~        0     0      6898    4482 1      
##  2 01/02/2022 06:24 "before you dismis~        1     0        57     150 2      
##  3 01/02/2022 06:23 "market budget mov~        0     0       223       7 3      
##  4 01/02/2022 06:22 "when engaging col~        0     0       901    1380 4      
##  5 01/02/2022 06:18 " the hill biparti~        0     1      7661    3009 5      
##  6 01/02/2022 06:18 " the agacgfm fall~        0     0      1781    4870 6      
##  7 01/02/2022 06:17 "glad support our ~        0     0       152     637 7      
##  8 01/02/2022 06:16 "three ways improv~        0     0       898    2489 8      
##  9 01/02/2022 06:15 "the path true equ~        1     0       182     293 9      
## 10 01/02/2022 06:13 " honor all asian ~        1     0        40      16 10     
## # ... with 12,793 more rows
Notice the changes in the tweet column of the data. No longer do we have punctuation, capital letters, or unwanted symbols.

Step 3) Tokenizing data, Removing Stopwords, and Creating N-grams

The next set of code shows us how to create N-grams after removing stopwords (stopwords are discussed below). The process of creating N-grams is way of tokenizing the data. That is, we are spliting the text into a set of tokens. These tokens could be 1-word, a pair of words, or an entire paragraph. Below, we show how to create 1-word tokens (unigrams) and pairs of words tokens (bigrams). The first step in the code is to tokenize the data into a set of words (unigrams). We accomplish this using the dyplr package and the tidytext package (Silge and Robinson 2016). Using the object tweets, we call the unnest_tokens function by stating that we want to create a column of single words named word using the column of tweets. We specify that the tokens are n-grams of n=1. The resulting data are displayed below the code chunk.

library(dplyr)
# tokenize data with unnest_tokens (1 word tokens)
# we will create bigrams using the tokenized unigram data
tweet_unigrams <- tweets %>%
  tidytext::unnest_tokens(word, tweet, token = "ngrams", n =1)

tweet_unigrams

## # A tibble: 337,567 x 7
##    date             retweets  favs followers follows tweetid word             
##    <chr>               <int> <int>     <int>   <int> <chr>   <chr>            
##  1 01/02/2022 06:25        0     0      6898    4482 1       this             
##  2 01/02/2022 06:25        0     0      6898    4482 1       blackhistorymonth
##  3 01/02/2022 06:25        0     0      6898    4482 1       are              
##  4 01/02/2022 06:25        0     0      6898    4482 1       excited          
##  5 01/02/2022 06:25        0     0      6898    4482 1       celebrate        
##  6 01/02/2022 06:25        0     0      6898    4482 1       black            
##  7 01/02/2022 06:25        0     0      6898    4482 1       excellence       
##  8 01/02/2022 06:25        0     0      6898    4482 1       and              
##  9 01/02/2022 06:25        0     0      6898    4482 1       shine            
## 10 01/02/2022 06:25        0     0      6898    4482 1       light            
## # ... with 337,557 more rows
…
To create bigrams, we use the set of unigrams with the stopwords removed. Using the object tweet_unigrams_nostop, we call the unnest_tokens function by stating we want to create a column of bigrams named bigrams using the column of word in the tweet_unigrams_nostop tibble. We specify that the tokens are n-grams of n=2. Lastly, we move the columns of word and bigram to the front of the dataframes using the indexing command [,c(7,1:6)]. This can be useful if you want to use the tweet attribute data in subsequent analysis. Otherwise, in the steps below, the data would be lost if the column of words and bigrams were kept at the end of the dataset or tibble.

# create bigrams from unigrams
tweet_bigrams_nostop <- tweet_unigrams_nostop %>%
  tidytext::unnest_tokens(bigram, word, token = "ngrams", n =2)

# arrange first column to word
# this is important for data to be carried forward in later 
# analysis using the tidytext approach
tweet_unigrams_nostop <- tweet_unigrams_nostop[,c(7,1:6)]
tweet_bigrams_nostop <- tweet_bigrams_nostop[,c(7,1:6)]

tweet_bigrams_nostop

## # A tibble: 223,148 x 7
##    bigram date             retweets  favs followers follows tweetid
##    <chr>  <chr>               <int> <int>     <int>   <int> <chr>  
##  1 <NA>   01/02/2022 06:25        0     0      6898    4482 1      
##  2 <NA>   01/02/2022 06:25        0     0      6898    4482 1      
##  3 <NA>   01/02/2022 06:25        0     0      6898    4482 1      
##  4 <NA>   01/02/2022 06:25        0     0      6898    4482 1      
##  5 <NA>   01/02/2022 06:25        0     0      6898    4482 1      
##  6 <NA>   01/02/2022 06:25        0     0      6898    4482 1      
##  7 <NA>   01/02/2022 06:25        0     0      6898    4482 1      
##  8 <NA>   01/02/2022 06:25        0     0      6898    4482 1      
##  9 <NA>   01/02/2022 06:25        0     0      6898    4482 1      
## 10 <NA>   01/02/2022 06:25        0     0      6898    4482 1      
## # ... with 223,138 more rows
…
Document-Topic Probabilities

We can examine a specific tweet based on its gamma probability to see how the classification performed. For example, let us filter the tweets that had a probability greater than 0.95 on topic 1.

library(dplyr)

# filter tweet great than 0.95 and topic equal to 1
tweet_topic_document %>% filter(gamma > 0.95 & topic == 1)

## # A tibble: 5,135 x 3
##    document topic gamma
##    <chr>    <int> <dbl>
##  1 2762         1  1.00
##  2 10094        1  1.00
##  3 11535        1  1.00
##  4 1312         1  1.00
##  5 1972         1  1.00
##  6 291          1  1.00
##  7 3718         1  1.00
##  8 3918         1  1.00
##  9 4850         1  1.00
## 10 5371         1  1.00
## # ... with 5,125 more rows
…
